^C:\Users\1570 LITE\Desktop\Unity - OpenCV\OpenCV - DLL Project\Unity OCV DLL\Unity OCV DLL.vcxproj
C:\Users\1570 LITE\Desktop\Unity - OpenCV\OpenCV - DLL Project\Unity OCV DLL\bin\Debug\UnityOCVd.lib
C:\Users\1570 LITE\Desktop\Unity - OpenCV\OpenCV - DLL Project\Unity OCV DLL\bin\Debug\UnityOCVd.exp
